3.000000000
-1.000000000
2.000000000
0.500000000
1.000000000

ERROR: Expected item of type:  0  Found item of type:  1
{| 'NULL' := -1, 'Num' := 0, 'String' := 1, 'List' := 2, 'Map' := 3, 'Graph' := 4 |}
